processor.vcd
$date
	Fri Jun  2 19:42:19 2017
$end
$version
	Icarus Verilog
$end
$timescale
	1s
$end
$scope module processor $end
$var wire 32 ! AluInB [31:0] $end
$var wire 32 " add1Out [31:0] $end
$var wire 32 # add2Out [31:0] $end
$var wire 2 $ aluOp [1:0] $end
$var wire 32 % aluResult [31:0] $end
$var wire 1 & aluSrc $end
$var wire 1 ' andResult $end
$var wire 1 ( branch $end
$var wire 32 ) extendOut [31:0] $end
$var wire 1 * flagZero $end
$var wire 32 + instruction [31:0] $end
$var wire 1 , memRead $end
$var wire 1 - memToReg $end
$var wire 1 . memWrite $end
$var wire 32 / nextPC [31:0] $end
$var wire 4 0 op [3:0] $end
$var wire 32 1 pcOut [31:0] $end
$var wire 32 2 readData1Out [31:0] $end
$var wire 32 3 readData2Out [31:0] $end
$var wire 32 4 readDataOut [31:0] $end
$var wire 1 5 regDst $end
$var wire 1 6 regWrite $end
$var wire 32 7 shift2Out [31:0] $end
$var wire 32 8 writeData [31:0] $end
$var wire 5 9 writeRegister [4:0] $end
$var reg 32 : addFix [31:0] $end
$var reg 1 ; clk $end
$var reg 32 < pcIn [31:0] $end
$scope module pc $end
$var wire 1 = clock $end
$var wire 32 > in [31:0] $end
$var reg 32 ? out [31:0] $end
$upscope $end
$scope module add1 $end
$var wire 32 @ a [31:0] $end
$var wire 32 A b [31:0] $end
$var reg 32 B out [31:0] $end
$upscope $end
$scope module instMem $end
$var wire 32 C address [31:0] $end
$var reg 32 D instruction [31:0] $end
$upscope $end
$scope module control $end
$var wire 6 E opCode [5:0] $end
$var reg 2 F aluOp [1:0] $end
$var reg 1 G aluSrc $end
$var reg 1 H branch $end
$var reg 1 I memRead $end
$var reg 1 J memToReg $end
$var reg 1 K memWrite $end
$var reg 1 L regDst $end
$var reg 1 M regWrite $end
$upscope $end
$scope module mux1 $end
$var wire 5 N a [4:0] $end
$var wire 5 O b [4:0] $end
$var wire 1 5 control $end
$var reg 5 P out [4:0] $end
$upscope $end
$scope module register $end
$var wire 1 = clock $end
$var wire 5 Q readRegister1 [4:0] $end
$var wire 5 R readRegister2 [4:0] $end
$var wire 1 6 regWrite $end
$var wire 32 S writeData [31:0] $end
$var wire 5 T writeRegister [4:0] $end
$var reg 32 U readData1 [31:0] $end
$var reg 32 V readData2 [31:0] $end
$upscope $end
$scope module extand $end
$var wire 16 W a [15:0] $end
$var reg 32 X out [31:0] $end
$upscope $end
$scope module mux2 $end
$var wire 32 Y a [31:0] $end
$var wire 32 Z b [31:0] $end
$var wire 1 & control $end
$var reg 32 [ out [31:0] $end
$upscope $end
$scope module aluClt $end
$var wire 2 \ aluOp [1:0] $end
$var wire 6 ] funcCode [5:0] $end
$var reg 4 ^ aluCtl [3:0] $end
$upscope $end
$scope module alu $end
$var wire 32 _ a [31:0] $end
$var wire 32 ` b [31:0] $end
$var wire 4 a op [3:0] $end
$var reg 32 b out [31:0] $end
$var reg 1 c zero $end
$upscope $end
$scope module dataMem $end
$var wire 32 d address [31:0] $end
$var wire 1 , memRead $end
$var wire 1 . memWrite $end
$var wire 32 e writeData [31:0] $end
$var reg 32 f readData [31:0] $end
$upscope $end
$scope module mux3 $end
$var wire 32 g a [31:0] $end
$var wire 32 h b [31:0] $end
$var wire 1 - control $end
$var reg 32 i out [31:0] $end
$upscope $end
$scope module shift2 $end
$var wire 32 j a [31:0] $end
$var reg 32 k out [31:0] $end
$upscope $end
$scope module add2 $end
$var wire 32 l a [31:0] $end
$var wire 32 m b [31:0] $end
$var reg 32 n out [31:0] $end
$upscope $end
$scope module andDoor $end
$var wire 1 ( a $end
$var wire 1 * b $end
$var reg 1 o out $end
$upscope $end
$scope module mux4 $end
$var wire 32 p a [31:0] $end
$var wire 32 q b [31:0] $end
$var wire 1 ' control $end
$var reg 32 r out [31:0] $end
$upscope $end
$upscope $end
$enddefinitions $end
#0
$dumpvars
b100 r
b10000000010000100 q
b100 p
0o
b10000000010000100 n
b10000000010000000 m
b100 l
b10000000010000000 k
b100000000100000 j
b10110 i
b10110 h
bx g
bx f
b10 e
b10110 d
xc
b10110 b
b10 a
b10 `
b10100 _
b10 ^
b100000 ]
b10 \
b10 [
b100000000100000 Z
b10 Y
b100000000100000 X
b100000000100000 W
b10 V
b10100 U
b1000 T
b10110 S
b10010 R
b10001 Q
b1000 P
b1000 O
b10010 N
1M
1L
0K
1J
0I
0H
0G
b10 F
b0 E
b10001100100100000000100000 D
b0 C
b100 B
b100 A
b0 @
b0 ?
b0 >
x=
b0 <
x;
b100 :
b1000 9
b10110 8
b10000000010000000 7
16
15
bx 4
b10 3
b10100 2
b0 1
b10 0
b100 /
0.
1-
0,
b10001100100100000000100000 +
x*
b100000000100000 )
0(
0'
0&
b10110 %
b10 $
b10000000010000100 #
b100 "
b10 !
$end
#15
1;
1=
#30
0;
0=
#45
1;
1=
#60
b11111111111111111111111111100111 i
b11111111111111111111111111100111 8
b11111111111111111111111111100111 S
b10010000010001000 k
b10010000010001000 7
b10010000010001000 m
b11110 [
b11110 !
b11110 `
b11111111111111111111111111100111 b
b11111111111111111111111111100111 %
b11111111111111111111111111100111 d
b11111111111111111111111111100111 h
b100100000100010 X
b100100000100010 )
b100100000100010 Z
b100100000100010 j
b11110 V
b11110 3
b11110 Y
b11110 e
b101 U
b101 2
b101 _
0c
0*
b110 ^
b110 0
b110 a
b1001 P
b1001 9
b1001 T
b100010 ]
b100100000100010 W
b10100 R
b10011 Q
b1001 O
b10100 N
b1000 r
b1000 /
b10010000010010000 n
b10010000010010000 #
b10010000010010000 q
b10011101000100100000100010 D
b10011101000100100000100010 +
b1000 B
b1000 "
b1000 l
b1000 p
b100 ?
b100 1
b100 @
b100 C
b100 <
b100 >
0;
0=
#75
1;
1=
#90
b11111111111111111111111111110001 b
b11111111111111111111111111110001 %
b11111111111111111111111111110001 d
b11111111111111111111111111110001 h
b111100 k
b111100 7
b111100 m
b10101 [
b10101 !
b10101 `
b1111 X
b1111 )
b1111 Z
b1111 j
b10101 V
b10101 3
b10101 Y
b10101 e
b110 U
b110 2
b110 _
bx i
bx 8
bx S
b10110 P
b10110 9
b10110 T
0M
06
b1 F
b1 $
b1 \
0J
0-
1H
1(
0L
05
b1111 ]
b1111 W
b10110 R
b10101 Q
b0 O
b10110 N
b100 E
b1100 r
b1100 /
b1001000 n
b1001000 #
b1001000 q
b10010101101100000000000001111 D
b10010101101100000000000001111 +
b1100 B
b1100 "
b1100 l
b1100 p
b1000 ?
b1000 1
b1000 @
b1000 C
b1000 <
b1000 >
0;
0=
#105
1;
1=
#120
b11111111101010000010010100 k
b11111111101010000010010100 7
b11111111101010000010010100 m
b11111111111111111111111111100111 [
b11111111111111111111111111100111 !
b11111111111111111111111111100111 `
b11111111111111111111111111110111 b
b11111111111111111111111111110111 %
b11111111111111111111111111110111 d
b11111111111111111111111111110111 h
b111111111010100000100101 X
b111111111010100000100101 )
b111111111010100000100101 Z
b111111111010100000100101 j
b11111111111111111111111111100111 V
b11111111111111111111111111100111 3
b11111111111111111111111111100111 Y
b11111111111111111111111111100111 e
b10110 U
b10110 2
b10110 _
b11111111111111111111111111110111 i
b11111111111111111111111111110111 8
b11111111111111111111111111110111 S
b1 ^
b1 0
b1 a
b10101 P
b10101 9
b10101 T
1M
16
b10 F
b10 $
b10 \
1J
1-
0H
0(
1L
15
b100101 ]
b1010100000100101 W
b1001 R
b1000 Q
b10101 O
b1001 N
b0 E
b10000 r
b10000 /
b11111111101010000010100100 n
b11111111101010000010100100 #
b11111111101010000010100100 q
b1000010011010100000100101 D
b1000010011010100000100101 +
b10000 B
b10000 "
b10000 l
b10000 p
b1100 ?
b1100 1
b1100 @
b1100 C
b1100 <
b1100 >
0;
0=
#135
1;
1=
#150
b1010000 i
b1010000 8
b1010000 S
b10110000010101000 k
b10110000010101000 7
b10110000010101000 m
b10 [
b10 !
b10 `
b1010000 b
b1010000 %
b1010000 d
b1010000 h
b101100000101010 X
b101100000101010 )
b101100000101010 Z
b101100000101010 j
b10 V
b10 3
b10 Y
b10 e
b10100 U
b10100 2
b10100 _
b111 ^
b111 0
b111 a
b1011 P
b1011 9
b1011 T
b101010 ]
b101100000101010 W
b10010 R
b10001 Q
b1011 O
b10010 N
b10100 r
b10100 /
b10110000010111100 n
b10110000010111100 #
b10110000010111100 q
b10001100100101100000101010 D
b10001100100101100000101010 +
b10100 B
b10100 "
b10100 l
b10100 p
b10000 ?
b10000 1
b10000 @
b10000 C
b10000 <
b10000 >
0;
0=
#165
1;
1=
#180
b0 i
b0 8
b0 S
b11000000010010000 k
b11000000010010000 7
b11000000010010000 m
b10100 [
b10100 !
b10100 `
b0 b
b0 %
b0 d
b0 h
b110000000100100 X
b110000000100100 )
b110000000100100 Z
b110000000100100 j
b10100 V
b10100 3
b10100 Y
b10100 e
b10 U
b10 2
b10 _
b0 ^
b0 0
b0 a
b1100 P
b1100 9
b1100 T
b100100 ]
b110000000100100 W
b10001 R
b10010 Q
b1100 O
b10001 N
b11000 r
b11000 /
b11000000010101000 n
b11000000010101000 #
b11000000010101000 q
b10010100010110000000100100 D
b10010100010110000000100100 +
b11000 B
b11000 "
b11000 l
b11000 p
b10100 ?
b10100 1
b10100 @
b10100 C
b10100 <
b10100 >
0;
0=
#195
1;
1=
#210
b10000 k
b10000 7
b10000 m
b100 b
b100 %
b100 d
b100 h
b100 X
b100 )
b100 Z
b100 j
b0 V
b0 3
b0 Y
b0 e
b0 U
b0 2
b0 _
b100 [
b100 !
b100 `
bx i
bx 8
bx S
b10 ^
b10 0
b10 a
0M
06
1G
1&
1K
1.
b0 F
b0 $
b0 \
0J
0-
0L
05
b100 ]
b100 W
b1100 R
b10000 Q
b0 O
b1100 N
b101011 E
b11100 r
b11100 /
b101100 n
b101100 #
b101100 q
b10101110000011000000000000000100 D
b10101110000011000000000000000100 +
b11100 B
b11100 "
b11100 l
b11100 p
b11000 ?
b11000 1
b11000 @
b11000 C
b11000 <
b11000 >
0;
0=
#225
1;
1=
#240
b0 f
b0 4
b0 g
b100 i
b100 8
b100 S
b1101 P
b1101 9
b1101 T
0K
0.
1J
1-
1I
1,
b1101 R
b1101 N
b100011 E
b100000 r
b100000 /
b110000 n
b110000 #
b110000 q
b10001110000011010000000000000100 D
b10001110000011010000000000000100 +
b100000 B
b100000 "
b100000 l
b100000 p
b11100 ?
b11100 1
b11100 @
b11100 C
b11100 <
b11100 >
0;
0=
#255
1;
1=
#270
b0 i
b0 8
b0 S
b11100000010000000 k
b11100000010000000 7
b11100000010000000 m
b0 b
b0 %
b0 d
b0 h
b111000000100000 X
b111000000100000 )
b111000000100000 Z
b111000000100000 j
b0 [
b0 !
b0 `
b1110 P
b1110 9
b1110 T
1M
16
0G
0&
b10 F
b10 $
b10 \
0I
0,
1L
15
b100000 ]
b111000000100000 W
b1100 Q
b1110 O
b0 E
b100100 r
b100100 /
b11100000010100100 n
b11100000010100100 #
b11100000010100100 q
b1100011010111000000100000 D
b1100011010111000000100000 +
b100100 B
b100100 "
b100100 l
b100100 p
b100000 ?
b100000 1
b100000 @
b100000 C
b100000 <
b100000 >
0;
0=
#285
1;
1=
#300
b0 b
b0 %
b0 d
b0 h
b100000 k
b100000 7
b100000 m
b10101 [
b10101 !
b10101 `
1o
1'
b1000 X
b1000 )
b1000 Z
b1000 j
b10101 V
b10101 3
b10101 Y
b10101 e
b10101 U
b10101 2
b10101 _
1c
1*
b110 ^
b110 0
b110 a
b10110 P
b10110 9
b10110 T
0M
06
b1 F
b1 $
b1 \
0J
0-
1H
1(
0L
05
b1000 ]
b1000 W
b10110 R
b10111 Q
b0 O
b10110 N
b100 E
b1001000 r
b1001000 /
b1001000 n
b1001000 #
b1001000 q
b10010111101100000000000001000 D
b10010111101100000000000001000 +
b101000 B
b101000 "
b101000 l
b101000 p
b100100 ?
b100100 1
b100100 @
b100100 C
b100100 <
b100100 >
0;
0=
#315
1;
1=
#330
b10100 i
b10100 8
b10100 S
b11000000010000000 k
b11000000010000000 7
b11000000010000000 m
b10100 [
b10100 !
b10100 `
b10100 b
b10100 %
b10100 d
b10100 h
0o
0'
b110000000100000 X
b110000000100000 )
b110000000100000 Z
b110000000100000 j
b10100 V
b10100 3
b10100 Y
b10100 e
b0 U
b0 2
b0 _
b10 ^
b10 0
b10 a
b1100 P
b1100 9
b1100 T
1M
16
b10 F
b10 $
b10 \
1J
1-
0H
0(
1L
15
b100000 ]
b110000000100000 W
b10001 R
b0 Q
b1100 O
b10001 N
b0 E
b1001100 r
b1001100 /
b11000000011001100 n
b11000000011001100 #
b11000000011001100 q
b100010110000000100000 D
b100010110000000100000 +
b1001100 B
b1001100 "
b1001100 l
b1001100 p
b1001000 ?
b1001000 1
b1001000 @
b1001000 C
b1001000 <
b1001000 >
0;
0=
#345
1;
1=
#360
b100000 k
b100000 7
b100000 m
b1000 b
b1000 %
b1000 d
b1000 h
b1000 X
b1000 )
b1000 Z
b1000 j
b1000 [
b1000 !
b1000 `
b0 i
b0 8
b0 S
0M
06
1G
1&
1K
1.
b0 F
b0 $
b0 \
0J
0-
0L
05
b1000 ]
b1000 W
b1100 R
b10000 Q
b0 O
b1100 N
b101011 E
b1010000 r
b1010000 /
b1110000 n
b1110000 #
b1110000 q
b10101110000011000000000000001000 D
b10101110000011000000000000001000 +
b1010000 B
b1010000 "
b1010000 l
b1010000 p
b1001100 ?
b1001100 1
b1001100 @
b1001100 C
b1001100 <
b1001100 >
0;
0=
#375
1;
1=
#390
b10100 f
b10100 4
b10100 g
b0 V
b0 3
b0 Y
b0 e
b1000 i
b1000 8
b1000 S
b1101 P
b1101 9
b1101 T
0K
0.
1J
1-
1I
1,
b1101 R
b1101 N
b100011 E
b1010100 r
b1010100 /
b1110100 n
b1110100 #
b1110100 q
b10001110000011010000000000001000 D
b10001110000011010000000000001000 +
b1010100 B
b1010100 "
b1010100 l
b1010100 p
b1010000 ?
b1010000 1
b1010000 @
b1010000 C
b1010000 <
b1010000 >
0;
0=
#405
1;
1=
#420
b10100 i
b10100 8
b10100 S
b11100000010000000 k
b11100000010000000 7
b11100000010000000 m
b10100 b
b10100 %
b10100 d
b10100 h
b111000000100000 X
b111000000100000 )
b111000000100000 Z
b111000000100000 j
b10100 V
b10100 3
b10100 Y
b10100 e
b10100 [
b10100 !
b10100 `
b1110 P
b1110 9
b1110 T
1M
16
0G
0&
b10 F
b10 $
b10 \
0I
0,
1L
15
b100000 ]
b111000000100000 W
b1100 R
b1101 Q
b1110 O
b1100 N
b0 E
b1011000 r
b1011000 /
b11100000011011000 n
b11100000011011000 #
b11100000011011000 q
b1101011000111000000100000 D
b1101011000111000000100000 +
b1011000 B
b1011000 "
b1011000 l
b1011000 p
b1010100 ?
b1010100 1
b1010100 @
b1010100 C
b1010100 <
b1010100 >
0;
0=
#435
1;
1=
#450
bx i
bx 8
bx S
bx b
bx %
bx d
bx h
b0xxxxxxxxxxxxxxxxxxxxxxxx00 k
b0xxxxxxxxxxxxxxxxxxxxxxxx00 7
b0xxxxxxxxxxxxxxxxxxxxxxxx00 m
bx [
bx !
bx `
b0xxxxxxxxxxxxxxxxxxxxxxxx X
b0xxxxxxxxxxxxxxxxxxxxxxxx )
b0xxxxxxxxxxxxxxxxxxxxxxxx Z
b0xxxxxxxxxxxxxxxxxxxxxxxx j
bx V
bx 3
bx Y
bx e
bx U
bx 2
bx _
bx P
bx 9
bx T
bx ]
bx W
bx R
bx Q
bx O
bx N
bx E
b1011100 r
b1011100 /
bx n
bx #
bx q
bx D
bx +
b1011100 B
b1011100 "
b1011100 l
b1011100 p
b1011000 ?
b1011000 1
b1011000 @
b1011000 C
b1011000 <
b1011000 >
0;
0=
#465
1;
1=
#480
b1100000 r
b1100000 /
b1100000 B
b1100000 "
b1100000 l
b1100000 p
b1011100 ?
b1011100 1
b1011100 @
b1011100 C
b1011100 <
b1011100 >
0;
0=
#495
1;
1=
#510
b1100100 r
b1100100 /
b1100100 B
b1100100 "
b1100100 l
b1100100 p
b1100000 ?
b1100000 1
b1100000 @
b1100000 C
b1100000 <
b1100000 >
0;
0=
#525
1;
1=
#540
b1101000 r
b1101000 /
b1101000 B
b1101000 "
b1101000 l
b1101000 p
b1100100 ?
b1100100 1
b1100100 @
b1100100 C
b1100100 <
b1100100 >
0;
0=
#555
1;
1=
#570
b1101100 r
b1101100 /
b1101100 B
b1101100 "
b1101100 l
b1101100 p
b1101000 ?
b1101000 1
b1101000 @
b1101000 C
b1101000 <
b1101000 >
0;
0=
#585
1;
1=
#600
b1110000 r
b1110000 /
b1110000 B
b1110000 "
b1110000 l
b1110000 p
b1101100 ?
b1101100 1
b1101100 @
b1101100 C
b1101100 <
b1101100 >
0;
0=
#615
1;
1=
#630
b1110100 r
b1110100 /
b1110100 B
b1110100 "
b1110100 l
b1110100 p
b1110000 ?
b1110000 1
b1110000 @
b1110000 C
b1110000 <
b1110000 >
0;
0=
#645
1;
1=
#660
b1111000 r
b1111000 /
b1111000 B
b1111000 "
b1111000 l
b1111000 p
b1110100 ?
b1110100 1
b1110100 @
b1110100 C
b1110100 <
b1110100 >
0;
0=
#675
1;
1=
#690
b1111100 r
b1111100 /
b1111100 B
b1111100 "
b1111100 l
b1111100 p
b1111000 ?
b1111000 1
b1111000 @
b1111000 C
b1111000 <
b1111000 >
0;
0=
#705
1;
1=
#720
b10000000 r
b10000000 /
b10000000 B
b10000000 "
b10000000 l
b10000000 p
b1111100 ?
b1111100 1
b1111100 @
b1111100 C
b1111100 <
b1111100 >
0;
0=
#735
1;
1=
#750
b10000100 r
b10000100 /
b10000100 B
b10000100 "
b10000100 l
b10000100 p
b10000000 ?
b10000000 1
b10000000 @
b10000000 C
b10000000 <
b10000000 >
0;
0=
#780
b10001000 r
b10001000 /
b10001000 B
b10001000 "
b10001000 l
b10001000 p
b10000100 ?
b10000100 1
b10000100 @
b10000100 C
b10000100 <
b10000100 >
